Building spatial databases | Spatial Data in R
…
regional.pas.sf <- read_sf('/Users/matthewwilliamson/Downloads/session14/reg_pas.shp')

regional.pas.sf

## Simple feature collection with 544 features and 32 fields
## Geometry type: MULTIPOLYGON
## Dimension:     XY
## Bounding box:  xmin: -2034299 ymin: 1004785 xmax: -530474 ymax: 3059862
## Projected CRS: USA_Contiguous_Albers_Equal_Area_Conic_USGS_version
## # A tibble: 544 × 33
##    Categry Own_Typ Own_Nam Loc_Own Mng_Typ Mang_Nm Loc_Mng Des_Tp Loc_Ds Unit_Nm
##    <chr>   <chr>   <chr>   <chr>   <chr>   <chr>   <chr>   <chr>  <chr>  <chr>  
##  1 Procla… DESG    DESG    <NA>    FED     FWS     0       PROC   AS     Nation…
##  2 Procla… DESG    DESG    <NA>    FED     FWS     0       PROC   CA     San Lu…
##  3 Procla… DESG    DESG    <NA>    FED     FWS     0       PROC   CA     San Lu…
##  4 Procla… DESG    DESG    <NA>    FED     FWS     0       PROC   COORD  C. J. …
##  5 Procla… DESG    DESG    <NA>    FED     FWS     0       PROC   COORD  Carey …
##  6 Procla… DESG    DESG    <NA>    FED     FWS     0       PROC   COORD  Hagerm…
##  7 Procla… DESG    DESG    <NA>    FED     FWS     0       PROC   COORD  North …
##  8 Procla… DESG    DESG    <NA>    FED     FWS     0       PROC   COORD  Sand C…
##  9 Procla… DESG    DESG    <NA>    FED     FWS     0       PROC   FR     Eagle …
## 10 Procla… DESG    DESG    <NA>    FED     FWS     0       PROC   FSA    Farm S…
## # … with 534 more rows, and 23 more variables: Loc_Nm <chr>, Stat_Nm <chr>,
## #   Agg_Src <chr>, GIS_Src <chr>, Src_Dat <chr>, GIS_Acr <int>, Sr_PAID <chr>,
## #   WDPA_Cd <int>, Pb_Accs <chr>, Accss_S <chr>, Accss_D <chr>, GAP_Sts <chr>,
## #   GAPCdSr <chr>, GAPCdDt <chr>, IUCN_Ct <chr>, IUCNCtS <chr>, IUCNCtD <chr>,
## #   Dat_Est <chr>, Commnts <chr>, SHAPE_L <dbl>, SHAPE_A <dbl>, FetClss <chr>,
## #   geometry <MULTIPOLYGON [m]>

regional.parcels.sf <- read_sf('/Users/matthewwilliamson/Downloads/session14/Parcel_Polygons.shp')

regional.parcels.sf

## Simple feature collection with 79360 features and 4 fields
## Geometry type: MULTIPOLYGON
## Dimension:     XYZ
## Bounding box:  xmin: -124.5124 ymin: 28.82222 xmax: -81.65863 ymax: 49.00015
## z_range:       zmin: 0 zmax: 0
## Geodetic CRS:  NAD83
## # A tibble: 79,360 × 5
##    OBJECTID_1 MTRSA_LG    Shape_Leng Shape_Area                         geometry
##         <dbl> <chr>            <dbl>      <dbl>               <MULTIPOLYGON [°]>
##  1          1 AR050020N0…     0.0317  0.0000626 Z (((-92.66263 34.76826 0, -92.…
##  2          2 AR050020S0…     0.0325  0.0000651 Z (((-93.26224 34.55195 0, -93.…
##  3          3 AR050020S0…     0.0321  0.0000639 Z (((-93.29927 34.53098 0, -93.…
##  4          4 AR050030N0…     0.0308  0.0000580 Z (((-93.66021 34.93445 0, -93.…
##  5          5 AR050030S0…     0.0324  0.0000652 Z (((-93.27249 34.44986 0, -93.…
##  6          6 AR050050N0…     0.0164  0.0000166 Z (((-94.33553 35.10705 0, -94.…
##  7          7 AR050050N0…     0.0163  0.0000164 Z (((-94.33586 35.0962 0, -94.3…
##  8          8 AR050050N0…     0.0235  0.0000328 Z (((-94.33575 35.0998 0, -94.3…
##  9          9 AR050060S0…     0.0324  0.0000651 Z (((-93.33463 34.21174 0, -93.…
## 10         10 AR050060S0…     0.0323  0.0000643 Z (((-93.768 34.2144 0, -93.767…
## # … with 79,350 more rows
…
